Visulization of Multi-Level Modeling | Barry Meyo Z
…
# Explore technology attitudes by country
wvs_data %>%
  group_by(country) %>%
  summarise(
    mean_tech = mean(tech, na.rm = TRUE),
    sd_tech = sd(tech, na.rm = TRUE),
    missing_tech = mean(is.na(tech)),
    n = n()
  ) %>%
  mutate_if(is.numeric, ~round(., 2)) %>%
  arrange(desc(mean_tech)) %>%
  print(n = 20)  
# 
# # A tibble: 64 × 5
# country mean_tech sd_tech missing_tech     n
# <chr>       <dbl>   <dbl>        <dbl> <dbl>
#   1 CHN          8.64    1.62            0  2976
# 2 KGZ          8.51    2.37            0  1169
# 3 BGD          8.36    1.73            0  1119
# 4 VNM          8.35    1.58            0  1200
# 5 UZB          8.31    2.19            0  1201
# 6 TJK          8.09    1.96            0  1200
# 7 LBY          7.98    2.51            0  1098
# 8 IDN          7.8     2.37            0  2973
# 9 MDV          7.7     2.09            0  1032
# 10 RUS          7.7     1.94            0  1741
# 11 UKR          7.67    2.05            0  1207
# 12 ETH          7.66    2.99            0  1070
# 13 DEU          7.62    2.24            0  1509
# 14 NZL          7.62    2.01            0   958
# 15 GBR          7.6     2.1             0  2572
# 16 KAZ          7.6     1.98            0  1202
# 17 USA          7.57    2.23            0  2540
# 18 ZWE          7.57    3.07            0  1170
# 19 MAR          7.46    2.22            0  1200
# 20 PAK          7.45    2.75            0  1882
# # ℹ 44 more rows
# # ℹ Use `print(n = ...)` to see more rows
…
